<?xml version="1.0" encoding="utf-8"?>
<!-- Generator: Adobe Illustrator 22.1.0, SVG Export Plug-In . SVG Version: 6.00 Build 0)  -->
<svg version="1.1" id="Layer_1" xmlns="http://www.w3.org/2000/svg" xmlns:xlink="http://www.w3.org/1999/xlink" x="0px" y="0px"
	 viewBox="0 0 9 9" style="enable-background:new 0 0 9 9;" xml:space="preserve">
<style type="text/css">
	.st0{fill:#FFFFFF;}
</style>
<path class="st0" d="M8.1,0.9c-0.7-0.7-1.9-0.7-2.6,0L0.8,5.6c0,0-0.1,0.1-0.1,0.1L0.4,8.4c0,0.1,0,0.1,0.1,0.2c0,0,0.1,0.1,0.2,0.1
	c0,0,0,0,0,0l1.6-0.2c0.1,0,0.2-0.1,0.2-0.3c0-0.1-0.1-0.2-0.3-0.2L0.9,8.1l0.2-1.8L3,8.2c0,0,0.1,0.1,0.2,0.1c0.1,0,0.1,0,0.2-0.1
	l4.7-4.7c0.3-0.3,0.5-0.8,0.5-1.3S8.4,1.2,8.1,0.9z M5.6,1.5l0.8,0.8L2.1,6.6L1.3,5.8L5.6,1.5z M3.2,7.7L2.4,6.9l4.3-4.3l0.8,0.8
	L3.2,7.7z M7.9,3.1L5.9,1.1c0.2-0.2,0.5-0.3,0.9-0.3c0.4,0,0.7,0.1,1,0.4c0.3,0.3,0.4,0.6,0.4,1C8.2,2.5,8,2.8,7.9,3.1z"/>
</svg>
