<?xml version="1.0" encoding="utf-8"?>
<!-- Generator: Adobe Illustrator 22.1.0, SVG Export Plug-In . SVG Version: 6.00 Build 0)  -->
<svg version="1.1" id="Layer_1" xmlns="http://www.w3.org/2000/svg" xmlns:xlink="http://www.w3.org/1999/xlink" x="0px" y="0px"
	 viewBox="0 0 20 20" style="enable-background:new 0 0 20 20;" xml:space="preserve">
<style type="text/css">
	.st0{opacity:0.5;}
	.st1{fill:#2287DE;}
</style>
<g class="st0">
	<g>
		<g>
			<path class="st1" d="M9.2,6.6h1.4V5.9h0.7V4.5h-0.7V3.7H9.2v0.7H8.6v1.5h0.7V6.6z M9.2,10.3h1.6V8.7H9.2V10.3z M18.6,17.2V8.9
				h-4.3V1.1H5.6v7.7H1.3v8.4H0.2v1.7h19.7v-1.7H18.6z M5.6,17.3H3v-6.7h2.6V17.3z M12.6,17.2h-1.5v-4.9H8.8v4.9H7.2V2.8h5.4V17.2z
				 M17,17.3h-2.7v-6.7H17V17.3z"/>
		</g>
	</g>
</g>
</svg>
