<?xml version="1.0" encoding="utf-8"?>
<!-- Generator: Adobe Illustrator 22.1.0, SVG Export Plug-In . SVG Version: 6.00 Build 0)  -->
<svg version="1.1" id="Layer_1" xmlns="http://www.w3.org/2000/svg" xmlns:xlink="http://www.w3.org/1999/xlink" x="0px" y="0px"
	 viewBox="0 0 8 8" style="enable-background:new 0 0 8 8;" xml:space="preserve">
<path d="M7.3,5.5c-1.1-0.9-1.6-0.5-2,0L5.2,5.5c-0.1,0.1-0.3,0-0.6-0.2C4.4,5.2,4,4.9,3.6,4.4C3,3.9,2.7,3.4,2.5,3.1
	c-0.1-0.2-0.1-0.3,0-0.3l0.1-0.1c0.5-0.5,0.9-0.9,0-2C2.2,0.3,1.9,0.1,1.6,0.1c0,0,0,0,0,0c-0.4,0-0.8,0.4-1.1,0.7
	c0,0.1-0.1,0.1-0.1,0.1C0,1.2,0,1.9,0.4,2.8c0.4,0.9,1,2,2,2.9c0.9,0.9,1.9,1.6,2.9,2C5.6,7.9,6,7.9,6.3,7.9c0.3,0,0.6-0.1,0.8-0.3
	c0,0,0.1-0.1,0.1-0.1c0.3-0.3,0.7-0.6,0.7-1.1C7.9,6.1,7.7,5.8,7.3,5.5z M1.6,0.5L1.6,0.5c0.2,0,0.4,0.2,0.7,0.4
	c0.7,0.9,0.5,1.1,0,1.5L2.2,2.5c-0.4,0.4,0,1.1,1.1,2.2c0.4,0.4,0.8,0.8,1.1,1C4.9,6,5.3,6.1,5.5,5.8l0.1-0.1C6,5.3,6.2,5.1,7,5.8
	C7.3,6,7.5,6.2,7.5,6.4C7.5,6.7,7.2,7,7,7.2c-0.1,0-0.1,0.1-0.1,0.1C6.6,7.6,6,7.6,5.3,7.3C4.4,7,3.5,6.3,2.6,5.4
	C1.7,4.5,1.1,3.6,0.7,2.7C0.5,2,0.4,1.4,0.7,1.2c0,0,0.1-0.1,0.1-0.2C1,0.8,1.3,0.5,1.6,0.5z"/>
</svg>
