<?xml version="1.0" encoding="utf-8"?>
<!-- Generator: Adobe Illustrator 22.1.0, SVG Export Plug-In . SVG Version: 6.00 Build 0)  -->
<svg version="1.1" id="Layer_1" xmlns="http://www.w3.org/2000/svg" xmlns:xlink="http://www.w3.org/1999/xlink" x="0px" y="0px"
	 viewBox="0 0 14.5 14.5" style="enable-background:new 0 0 14.5 14.5;" xml:space="preserve">
<style type="text/css">
	.st0{fill:#2287DE;}
	.st1{fill:#FFFFFF;}
</style>
<path class="st0" d="M14.3,7.3c0,3.9-3.2,7.1-7.1,7.1c-3.9,0-7.1-3.2-7.1-7.1s3.2-7.1,7.1-7.1C11.2,0.2,14.3,3.3,14.3,7.3z"/>
<path class="st1" d="M12.2,4.4c-0.5-0.9-1.2-1.6-2.1-2.1C9.2,1.8,8.3,1.5,7.3,1.5c-1,0-2,0.3-2.9,0.8C3.5,2.8,2.8,3.5,2.3,4.4
	C1.8,5.3,1.5,6.2,1.5,7.3c0,1,0.3,2,0.8,2.9c0.5,0.9,1.2,1.6,2.1,2.1C5.3,12.7,6.2,13,7.3,13s2-0.3,2.9-0.8c0.9-0.5,1.6-1.2,2.1-2.1
	C12.7,9.2,13,8.3,13,7.3C13,6.2,12.7,5.3,12.2,4.4z M10.6,7.7c0,0.1,0,0.2-0.1,0.3c-0.1,0.1-0.2,0.1-0.3,0.1H8.2v1.9
	c0,0.1,0,0.2-0.1,0.3c-0.1,0.1-0.2,0.1-0.3,0.1h-1c-0.1,0-0.2,0-0.3-0.1c-0.1-0.1-0.1-0.2-0.1-0.3V8.2H4.4c-0.1,0-0.2,0-0.3-0.1
	C4,8,3.9,7.9,3.9,7.7v-1c0-0.1,0-0.2,0.1-0.3c0.1-0.1,0.2-0.1,0.3-0.1h1.9V4.4c0-0.1,0-0.2,0.1-0.3C6.5,4,6.6,3.9,6.8,3.9h1
	c0.1,0,0.2,0,0.3,0.1c0.1,0.1,0.1,0.2,0.1,0.3v1.9h1.9c0.1,0,0.2,0,0.3,0.1c0.1,0.1,0.1,0.2,0.1,0.3V7.7z"/>
</svg>
