<?xml version="1.0" encoding="utf-8"?>
<!-- Generator: Adobe Illustrator 22.1.0, SVG Export Plug-In . SVG Version: 6.00 Build 0)  -->
<svg version="1.1" id="Layer_1" xmlns="http://www.w3.org/2000/svg" xmlns:xlink="http://www.w3.org/1999/xlink" x="0px" y="0px"
	 viewBox="0 0 8 8" style="enable-background:new 0 0 8 8;" xml:space="preserve">
<style type="text/css">
	.st0{fill:#8D8D8D;}
</style>
<g>
	<g>
		<path class="st0" d="M4,4.5c1.2,0,2.1-0.9,2.1-2.1c0-1.2-0.9-2.1-2.1-2.1S1.9,1.2,1.9,2.4C1.9,3.5,2.8,4.5,4,4.5z M4,0.8
			c0.9,0,1.6,0.7,1.6,1.5c0,0.9-0.7,1.5-1.6,1.5S2.4,3.2,2.4,2.4S3.1,0.8,4,0.8z M5.3,4.8H2.7C1.3,4.8,0.1,6,0.1,7.5
			c0,0.2,0.1,0.3,0.3,0.3h7.3c0.2,0,0.3-0.1,0.3-0.3C7.9,6,6.8,4.8,5.3,4.8z M0.6,7.2c0.1-1,1-1.8,2.1-1.8h2.6
			c1.1,0,1.9,0.8,2.1,1.8H0.6z"/>
	</g>
</g>
</svg>
